^E:\DEV\WORK\MSVS_PROJECTS\__YKR\CABIN\CABINCONTROL\LIB_TEST\DEBUG\LIB_TEST.OBJ|E:\DEV\WORK\MSVS_PROJECTS\__YKR\CABIN\CABINCONTROL\LIB_TEST\DEBUG\STDAFX.OBJ
E:\DEV\WORK\MSVS_PROJECTS\__YKR\CABIN\CABINCONTROL\DEBUG\LIB_TEST.ILK
E:\DEV\WORK\MSVS_PROJECTS\__YKR\CABIN\CABINCONTROL\DEBUG\LIB_TEST.EXE
E:\DEV\WORK\MSVS_PROJECTS\__YKR\CABIN\CABINCONTROL\DEBUG\LIB_TEST.PDB
